R beginner’s club 2024-09-12 – KIND resources
…
Lovely styled dates

This is fantastic, but bulky. If you’re after something more casual (and more .csv friendly) you can convert your date to a formatted text string using lubridate:

readxl::read_xlsx("data/s01_data.xlsx") |>
  dplyr::mutate(nice_date = lubridate::stamp_date("Jan 13 2021")(date)) 

# A tibble: 1,500 × 6
   date                WardName OccupiedBeds BedComp ClosedBed nice_date  
   <dttm>              <chr>           <dbl>   <dbl>     <dbl> <chr>      
 1 2022-11-02 00:00:00 A                  16      20         2 Nov 02 2022
 2 2022-11-02 00:00:00 B                  20      20         0 Nov 02 2022
 3 2022-11-02 00:00:00 C                  21      22         1 Nov 02 2022
 4 2022-11-02 00:00:00 D                  25      30         2 Nov 02 2022
 5 2022-11-02 00:00:00 E                  15      22         3 Nov 02 2022
 6 2022-11-03 00:00:00 A                  14      20         0 Nov 03 2022
 7 2022-11-03 00:00:00 B                  19      20         3 Nov 03 2022
 8 2022-11-03 00:00:00 C                  18      22         0 Nov 03 2022
 9 2022-11-03 00:00:00 D                  26      30         0 Nov 03 2022
10 2022-11-03 00:00:00 E                  13      22         0 Nov 03 2022
# ℹ 1,490 more rows
…
