R beginner’s club 2024-09-12 – KIND resources
…
You can also pull out all the sheet names from a workbook:

excel_sheets(fn)

[1] "occupancy_sh" "wards_sh"    

If you want to be fancy, you can iterate through the sheets:

lapply(excel_sheets(fn), 
       read_excel,
       path = fn)

[[1]]
# A tibble: 1,500 × 5
   date                WardName OccupiedBeds BedComp ClosedBed
   <dttm>              <chr>           <dbl>   <dbl>     <dbl>
 1 2022-11-02 00:00:00 A                  16      20         2
 2 2022-11-02 00:00:00 B                  20      20         0
 3 2022-11-02 00:00:00 C                  21      22         1
 4 2022-11-02 00:00:00 D                  25      30         2
 5 2022-11-02 00:00:00 E                  15      22         3
 6 2022-11-03 00:00:00 A                  14      20         0
 7 2022-11-03 00:00:00 B                  19      20         3
 8 2022-11-03 00:00:00 C                  18      22         0
 9 2022-11-03 00:00:00 D                  26      30         0
10 2022-11-03 00:00:00 E                  13      22         0
# ℹ 1,490 more rows
…
