R beginner’s club 2025-01-09 – KIND resources
…
[1] "990"

What’s happening here is that R is putting our results into alphabetical order, rather than numerical. That’s because these numbers are stored as if they were text owing to a couple of anomalous data points:

raw$PracticeListSize[grep("[^0-9]", raw$PracticeListSize)]

[1] "187*"  "9738a" "5595c"

We could use as.numeric to remove everything other than proper numbers:

raw |>
  mutate(PracticeListSize = as.numeric(PracticeListSize))

# A tibble: 64 × 15
   PracticeCode GPPracticeName        PracticeListSize AddressLine1 AddressLine2
          <dbl> <chr>                            <dbl> <chr>        <chr>       
 1        55003 Thurso & Halkirk Med…             6143 Thurso & Ha… 69 Princes …
 2        55041 Nairn Healthcare Gro…            15756 Nairn Healt… Nairn Town …
 3        55075 Dunbeath Surgery                   685 Dunbeath Su… Achorn Road 
 4        55080 Canisbay & Castletow…             2750 Canisbay & … Murrayfield 
 5        55145 The Pearson Practice              2647 The Pearson… Wick Medica…
 6        55183 Armadale Medical Pra…              925 Armadale Me… Armadale    
 7        55201 Dornoch Medical Prac…             2858 Dornoch Med… Shore Road  
 8        55220 Golspie Medical Prac…             1993 Golspie Med… Golspie Hea…
 9        55249 Lairg Health Centre               1222 Lairg Healt… Main Street 
10        55253 Assynt Medical Pract…              952 Assynt Medi… 6 Main Stre…
# ℹ 54 more rows
# ℹ 10 more variables: AddressLine3 <chr>, AddressLine4 <chr>, Postcode <chr>,
#   TelephoneNumber <chr>, PracticeType <chr>, `date collected` <chr>,
#   HB <chr>, HSCP <chr>, DataZone <chr>, GPCluster <chr>

Or, rather better, we could use readr::parse_number which will do a bit of inference to try and preserve anything that looks like a number:

raw |>
  mutate(PracticeListSize = parse_number(PracticeListSize))

# A tibble: 64 × 15
   PracticeCode GPPracticeName        PracticeListSize AddressLine1 AddressLine2
          <dbl> <chr>                            <dbl> <chr>        <chr>       
 1        55003 Thurso & Halkirk Med…             6143 Thurso & Ha… 69 Princes …
 2        55041 Nairn Healthcare Gro…            15756 Nairn Healt… Nairn Town …
 3        55075 Dunbeath Surgery                   685 Dunbeath Su… Achorn Road 
 4        55080 Canisbay & Castletow…             2750 Canisbay & … Murrayfield 
 5        55145 The Pearson Practice              2647 The Pearson… Wick Medica…
 6        55183 Armadale Medical Pra…              925 Armadale Me… Armadale    
 7        55201 Dornoch Medical Prac…             2858 Dornoch Med… Shore Road  
 8        55220 Golspie Medical Prac…             1993 Golspie Med… Golspie Hea…
 9        55249 Lairg Health Centre               1222 Lairg Healt… Main Street 
10        55253 Assynt Medical Pract…              952 Assynt Medi… 6 Main Stre…
# ℹ 54 more rows
# ℹ 10 more variables: AddressLine3 <chr>, AddressLine4 <chr>, Postcode <chr>,
#   TelephoneNumber <chr>, PracticeType <chr>, `date collected` <chr>,
#   HB <chr>, HSCP <chr>, DataZone <chr>, GPCluster <chr>
…
